{
  "nombre" : "Director",
  "correo" : "director@gmail.com",
  "password" : "12345678",
  "idRol": 1,
  "idAreaUPEV": 4,
  "idUnidadAcademica" : 6
}

{
  "nombre" : "Salvador",
  "correo" : "salvador@gmail.com",
  "password" : "12345678",
  "idRol": 2,
  "idAreaUPEV": 1,
  "idUnidadAcademica" : 6
}

{
  "nombre" : "Azhalia",
  "correo" : "azhalia@gmail.com",
  "password" : "12345678",
  "idRol": 2,
  "idAreaUPEV": 2,
  "idUnidadAcademica" : 6
}

{
  "nombre" : "Veronica",
  "correo" : "veronica@gmail.com",
  "password" : "12345678",
  "idRol": 2,
  "idAreaUPEV": 3,
  "idUnidadAcademica" : 6
}


{
  "nombre" : "Enrique",
  "correo" : "enrique@gmail.com",
  "password" : "12345678",
  "idRol": 3,
  "idAreaUPEV": 1,
  "idUnidadAcademica" : 2
}